EESchema Schematic File Version 2
LIBS:power
LIBS:device
LIBS:transistors
LIBS:conn
LIBS:linear
LIBS:regul
LIBS:74xx
LIBS:cmos4000
LIBS:adc-dac
LIBS:memory
LIBS:xilinx
LIBS:microcontrollers
LIBS:dsp
LIBS:microchip
LIBS:analog_switches
LIBS:motorola
LIBS:texas
LIBS:intel
LIBS:audio
LIBS:interface
LIBS:digital-audio
LIBS:philips
LIBS:display
LIBS:cypress
LIBS:siliconi
LIBS:opto
LIBS:atmel
LIBS:contrib
LIBS:valves
EELAYER 25 0
EELAYER END
$Descr A4 11693 8268
encoding utf-8
Sheet 1 1
Title "5x5 KMX"
Date "2016-10-11"
Rev "0.3"
Comp ""
Comment1 ""
Comment2 ""
Comment3 ""
Comment4 ""
$EndDescr
$Comp
L SPST SW00
U 1 1 57FD124A
P 2750 1300
F 0 "SW00" H 2750 1400 50  0000 C CNN
F 1 "SPST" H 2750 1200 50  0000 C CNN
F 2 "" H 2750 1300 50  0000 C CNN
F 3 "" H 2750 1300 50  0000 C CNN
	1    2750 1300
	1    0    0    -1  
$EndComp
$Comp
L D D00
U 1 1 57FD144D
P 2250 950
F 0 "D00" H 2250 1050 50  0000 C CNN
F 1 "D" H 2250 850 50  0000 C CNN
F 2 "" H 2250 950 50  0000 C CNN
F 3 "" H 2250 950 50  0000 C CNN
	1    2250 950 
	0    1    1    0   
$EndComp
$Comp
L SPST SW01
U 1 1 57FD1712
P 3950 1300
F 0 "SW01" H 3950 1400 50  0000 C CNN
F 1 "SPST" H 3950 1200 50  0000 C CNN
F 2 "" H 3950 1300 50  0000 C CNN
F 3 "" H 3950 1300 50  0000 C CNN
	1    3950 1300
	1    0    0    -1  
$EndComp
$Comp
L D D01
U 1 1 57FD1718
P 3450 950
F 0 "D01" H 3450 1050 50  0000 C CNN
F 1 "D" H 3450 850 50  0000 C CNN
F 2 "" H 3450 950 50  0000 C CNN
F 3 "" H 3450 950 50  0000 C CNN
	1    3450 950 
	0    1    1    0   
$EndComp
$Comp
L SPST SW02
U 1 1 57FD18F7
P 5150 1300
F 0 "SW02" H 5150 1400 50  0000 C CNN
F 1 "SPST" H 5150 1200 50  0000 C CNN
F 2 "" H 5150 1300 50  0000 C CNN
F 3 "" H 5150 1300 50  0000 C CNN
	1    5150 1300
	1    0    0    -1  
$EndComp
$Comp
L D D02
U 1 1 57FD18FD
P 4650 950
F 0 "D02" H 4650 1050 50  0000 C CNN
F 1 "D" H 4650 850 50  0000 C CNN
F 2 "" H 4650 950 50  0000 C CNN
F 3 "" H 4650 950 50  0000 C CNN
	1    4650 950 
	0    1    1    0   
$EndComp
$Comp
L SPST SW03
U 1 1 57FD1904
P 6350 1300
F 0 "SW03" H 6350 1400 50  0000 C CNN
F 1 "SPST" H 6350 1200 50  0000 C CNN
F 2 "" H 6350 1300 50  0000 C CNN
F 3 "" H 6350 1300 50  0000 C CNN
	1    6350 1300
	1    0    0    -1  
$EndComp
$Comp
L D D03
U 1 1 57FD190A
P 5850 950
F 0 "D03" H 5850 1050 50  0000 C CNN
F 1 "D" H 5850 850 50  0000 C CNN
F 2 "" H 5850 950 50  0000 C CNN
F 3 "" H 5850 950 50  0000 C CNN
	1    5850 950 
	0    1    1    0   
$EndComp
$Comp
L SPST SW04
U 1 1 57FD1B1D
P 7550 1300
F 0 "SW04" H 7550 1400 50  0000 C CNN
F 1 "SPST" H 7550 1200 50  0000 C CNN
F 2 "" H 7550 1300 50  0000 C CNN
F 3 "" H 7550 1300 50  0000 C CNN
	1    7550 1300
	1    0    0    -1  
$EndComp
$Comp
L D D04
U 1 1 57FD1B23
P 7050 950
F 0 "D04" H 7050 1050 50  0000 C CNN
F 1 "D" H 7050 850 50  0000 C CNN
F 2 "" H 7050 950 50  0000 C CNN
F 3 "" H 7050 950 50  0000 C CNN
	1    7050 950 
	0    1    1    0   
$EndComp
$Comp
L SPST SW10
U 1 1 57FD1EEA
P 2750 2100
F 0 "SW10" H 2750 2200 50  0000 C CNN
F 1 "SPST" H 2750 2000 50  0000 C CNN
F 2 "" H 2750 2100 50  0000 C CNN
F 3 "" H 2750 2100 50  0000 C CNN
	1    2750 2100
	1    0    0    -1  
$EndComp
$Comp
L D D10
U 1 1 57FD1EF0
P 2250 1750
F 0 "D10" H 2250 1850 50  0000 C CNN
F 1 "D" H 2250 1650 50  0000 C CNN
F 2 "" H 2250 1750 50  0000 C CNN
F 3 "" H 2250 1750 50  0000 C CNN
	1    2250 1750
	0    1    1    0   
$EndComp
$Comp
L SPST SW11
U 1 1 57FD1EF7
P 3950 2100
F 0 "SW11" H 3950 2200 50  0000 C CNN
F 1 "SPST" H 3950 2000 50  0000 C CNN
F 2 "" H 3950 2100 50  0000 C CNN
F 3 "" H 3950 2100 50  0000 C CNN
	1    3950 2100
	1    0    0    -1  
$EndComp
$Comp
L D D11
U 1 1 57FD1EFD
P 3450 1750
F 0 "D11" H 3450 1850 50  0000 C CNN
F 1 "D" H 3450 1650 50  0000 C CNN
F 2 "" H 3450 1750 50  0000 C CNN
F 3 "" H 3450 1750 50  0000 C CNN
	1    3450 1750
	0    1    1    0   
$EndComp
$Comp
L SPST SW12
U 1 1 57FD1F04
P 5150 2100
F 0 "SW12" H 5150 2200 50  0000 C CNN
F 1 "SPST" H 5150 2000 50  0000 C CNN
F 2 "" H 5150 2100 50  0000 C CNN
F 3 "" H 5150 2100 50  0000 C CNN
	1    5150 2100
	1    0    0    -1  
$EndComp
$Comp
L D D12
U 1 1 57FD1F0A
P 4650 1750
F 0 "D12" H 4650 1850 50  0000 C CNN
F 1 "D" H 4650 1650 50  0000 C CNN
F 2 "" H 4650 1750 50  0000 C CNN
F 3 "" H 4650 1750 50  0000 C CNN
	1    4650 1750
	0    1    1    0   
$EndComp
$Comp
L SPST SW13
U 1 1 57FD1F11
P 6350 2100
F 0 "SW13" H 6350 2200 50  0000 C CNN
F 1 "SPST" H 6350 2000 50  0000 C CNN
F 2 "" H 6350 2100 50  0000 C CNN
F 3 "" H 6350 2100 50  0000 C CNN
	1    6350 2100
	1    0    0    -1  
$EndComp
$Comp
L D D13
U 1 1 57FD1F17
P 5850 1750
F 0 "D13" H 5850 1850 50  0000 C CNN
F 1 "D" H 5850 1650 50  0000 C CNN
F 2 "" H 5850 1750 50  0000 C CNN
F 3 "" H 5850 1750 50  0000 C CNN
	1    5850 1750
	0    1    1    0   
$EndComp
$Comp
L SPST SW14
U 1 1 57FD1F1E
P 7550 2100
F 0 "SW14" H 7550 2200 50  0000 C CNN
F 1 "SPST" H 7550 2000 50  0000 C CNN
F 2 "" H 7550 2100 50  0000 C CNN
F 3 "" H 7550 2100 50  0000 C CNN
	1    7550 2100
	1    0    0    -1  
$EndComp
$Comp
L D D14
U 1 1 57FD1F24
P 7050 1750
F 0 "D14" H 7050 1850 50  0000 C CNN
F 1 "D" H 7050 1650 50  0000 C CNN
F 2 "" H 7050 1750 50  0000 C CNN
F 3 "" H 7050 1750 50  0000 C CNN
	1    7050 1750
	0    1    1    0   
$EndComp
$Comp
L SPST SW20
U 1 1 57FD2683
P 2750 2900
F 0 "SW20" H 2750 3000 50  0000 C CNN
F 1 "SPST" H 2750 2800 50  0000 C CNN
F 2 "" H 2750 2900 50  0000 C CNN
F 3 "" H 2750 2900 50  0000 C CNN
	1    2750 2900
	1    0    0    -1  
$EndComp
$Comp
L D D20
U 1 1 57FD2689
P 2250 2550
F 0 "D20" H 2250 2650 50  0000 C CNN
F 1 "D" H 2250 2450 50  0000 C CNN
F 2 "" H 2250 2550 50  0000 C CNN
F 3 "" H 2250 2550 50  0000 C CNN
	1    2250 2550
	0    1    1    0   
$EndComp
$Comp
L SPST SW21
U 1 1 57FD2690
P 3950 2900
F 0 "SW21" H 3950 3000 50  0000 C CNN
F 1 "SPST" H 3950 2800 50  0000 C CNN
F 2 "" H 3950 2900 50  0000 C CNN
F 3 "" H 3950 2900 50  0000 C CNN
	1    3950 2900
	1    0    0    -1  
$EndComp
$Comp
L D D21
U 1 1 57FD2696
P 3450 2550
F 0 "D21" H 3450 2650 50  0000 C CNN
F 1 "D" H 3450 2450 50  0000 C CNN
F 2 "" H 3450 2550 50  0000 C CNN
F 3 "" H 3450 2550 50  0000 C CNN
	1    3450 2550
	0    1    1    0   
$EndComp
$Comp
L SPST SW22
U 1 1 57FD269D
P 5150 2900
F 0 "SW22" H 5150 3000 50  0000 C CNN
F 1 "SPST" H 5150 2800 50  0000 C CNN
F 2 "" H 5150 2900 50  0000 C CNN
F 3 "" H 5150 2900 50  0000 C CNN
	1    5150 2900
	1    0    0    -1  
$EndComp
$Comp
L D D22
U 1 1 57FD26A3
P 4650 2550
F 0 "D22" H 4650 2650 50  0000 C CNN
F 1 "D" H 4650 2450 50  0000 C CNN
F 2 "" H 4650 2550 50  0000 C CNN
F 3 "" H 4650 2550 50  0000 C CNN
	1    4650 2550
	0    1    1    0   
$EndComp
$Comp
L SPST SW23
U 1 1 57FD26AA
P 6350 2900
F 0 "SW23" H 6350 3000 50  0000 C CNN
F 1 "SPST" H 6350 2800 50  0000 C CNN
F 2 "" H 6350 2900 50  0000 C CNN
F 3 "" H 6350 2900 50  0000 C CNN
	1    6350 2900
	1    0    0    -1  
$EndComp
$Comp
L D D23
U 1 1 57FD26B0
P 5850 2550
F 0 "D23" H 5850 2650 50  0000 C CNN
F 1 "D" H 5850 2450 50  0000 C CNN
F 2 "" H 5850 2550 50  0000 C CNN
F 3 "" H 5850 2550 50  0000 C CNN
	1    5850 2550
	0    1    1    0   
$EndComp
$Comp
L SPST SW24
U 1 1 57FD26B7
P 7550 2900
F 0 "SW24" H 7550 3000 50  0000 C CNN
F 1 "SPST" H 7550 2800 50  0000 C CNN
F 2 "" H 7550 2900 50  0000 C CNN
F 3 "" H 7550 2900 50  0000 C CNN
	1    7550 2900
	1    0    0    -1  
$EndComp
$Comp
L D D24
U 1 1 57FD26BD
P 7050 2550
F 0 "D24" H 7050 2650 50  0000 C CNN
F 1 "D" H 7050 2450 50  0000 C CNN
F 2 "" H 7050 2550 50  0000 C CNN
F 3 "" H 7050 2550 50  0000 C CNN
	1    7050 2550
	0    1    1    0   
$EndComp
$Comp
L SPST SW30
U 1 1 57FD26C4
P 2750 3700
F 0 "SW30" H 2750 3800 50  0000 C CNN
F 1 "SPST" H 2750 3600 50  0000 C CNN
F 2 "" H 2750 3700 50  0000 C CNN
F 3 "" H 2750 3700 50  0000 C CNN
	1    2750 3700
	1    0    0    -1  
$EndComp
$Comp
L D D30
U 1 1 57FD26CA
P 2250 3350
F 0 "D30" H 2250 3450 50  0000 C CNN
F 1 "D" H 2250 3250 50  0000 C CNN
F 2 "" H 2250 3350 50  0000 C CNN
F 3 "" H 2250 3350 50  0000 C CNN
	1    2250 3350
	0    1    1    0   
$EndComp
$Comp
L SPST SW31
U 1 1 57FD26D1
P 3950 3700
F 0 "SW31" H 3950 3800 50  0000 C CNN
F 1 "SPST" H 3950 3600 50  0000 C CNN
F 2 "" H 3950 3700 50  0000 C CNN
F 3 "" H 3950 3700 50  0000 C CNN
	1    3950 3700
	1    0    0    -1  
$EndComp
$Comp
L D D31
U 1 1 57FD26D7
P 3450 3350
F 0 "D31" H 3450 3450 50  0000 C CNN
F 1 "D" H 3450 3250 50  0000 C CNN
F 2 "" H 3450 3350 50  0000 C CNN
F 3 "" H 3450 3350 50  0000 C CNN
	1    3450 3350
	0    1    1    0   
$EndComp
$Comp
L SPST SW32
U 1 1 57FD26DE
P 5150 3700
F 0 "SW32" H 5150 3800 50  0000 C CNN
F 1 "SPST" H 5150 3600 50  0000 C CNN
F 2 "" H 5150 3700 50  0000 C CNN
F 3 "" H 5150 3700 50  0000 C CNN
	1    5150 3700
	1    0    0    -1  
$EndComp
$Comp
L D D32
U 1 1 57FD26E4
P 4650 3350
F 0 "D32" H 4650 3450 50  0000 C CNN
F 1 "D" H 4650 3250 50  0000 C CNN
F 2 "" H 4650 3350 50  0000 C CNN
F 3 "" H 4650 3350 50  0000 C CNN
	1    4650 3350
	0    1    1    0   
$EndComp
$Comp
L SPST SW33
U 1 1 57FD26EB
P 6350 3700
F 0 "SW33" H 6350 3800 50  0000 C CNN
F 1 "SPST" H 6350 3600 50  0000 C CNN
F 2 "" H 6350 3700 50  0000 C CNN
F 3 "" H 6350 3700 50  0000 C CNN
	1    6350 3700
	1    0    0    -1  
$EndComp
$Comp
L D D33
U 1 1 57FD26F1
P 5850 3350
F 0 "D33" H 5850 3450 50  0000 C CNN
F 1 "D" H 5850 3250 50  0000 C CNN
F 2 "" H 5850 3350 50  0000 C CNN
F 3 "" H 5850 3350 50  0000 C CNN
	1    5850 3350
	0    1    1    0   
$EndComp
$Comp
L SPST SW34
U 1 1 57FD26F8
P 7550 3700
F 0 "SW34" H 7550 3800 50  0000 C CNN
F 1 "SPST" H 7550 3600 50  0000 C CNN
F 2 "" H 7550 3700 50  0000 C CNN
F 3 "" H 7550 3700 50  0000 C CNN
	1    7550 3700
	1    0    0    -1  
$EndComp
$Comp
L D D34
U 1 1 57FD26FE
P 7050 3350
F 0 "D34" H 7050 3450 50  0000 C CNN
F 1 "D" H 7050 3250 50  0000 C CNN
F 2 "" H 7050 3350 50  0000 C CNN
F 3 "" H 7050 3350 50  0000 C CNN
	1    7050 3350
	0    1    1    0   
$EndComp
$Comp
L SPST SW40
U 1 1 57FD29FD
P 2750 4500
F 0 "SW40" H 2750 4600 50  0000 C CNN
F 1 "SPST" H 2750 4400 50  0000 C CNN
F 2 "" H 2750 4500 50  0000 C CNN
F 3 "" H 2750 4500 50  0000 C CNN
	1    2750 4500
	1    0    0    -1  
$EndComp
$Comp
L D D40
U 1 1 57FD2A03
P 2250 4150
F 0 "D40" H 2250 4250 50  0000 C CNN
F 1 "D" H 2250 4050 50  0000 C CNN
F 2 "" H 2250 4150 50  0000 C CNN
F 3 "" H 2250 4150 50  0000 C CNN
	1    2250 4150
	0    1    1    0   
$EndComp
$Comp
L SPST SW41
U 1 1 57FD2A0A
P 3950 4500
F 0 "SW41" H 3950 4600 50  0000 C CNN
F 1 "SPST" H 3950 4400 50  0000 C CNN
F 2 "" H 3950 4500 50  0000 C CNN
F 3 "" H 3950 4500 50  0000 C CNN
	1    3950 4500
	1    0    0    -1  
$EndComp
$Comp
L D D41
U 1 1 57FD2A10
P 3450 4150
F 0 "D41" H 3450 4250 50  0000 C CNN
F 1 "D" H 3450 4050 50  0000 C CNN
F 2 "" H 3450 4150 50  0000 C CNN
F 3 "" H 3450 4150 50  0000 C CNN
	1    3450 4150
	0    1    1    0   
$EndComp
$Comp
L SPST SW42
U 1 1 57FD2A17
P 5150 4500
F 0 "SW42" H 5150 4600 50  0000 C CNN
F 1 "SPST" H 5150 4400 50  0000 C CNN
F 2 "" H 5150 4500 50  0000 C CNN
F 3 "" H 5150 4500 50  0000 C CNN
	1    5150 4500
	1    0    0    -1  
$EndComp
$Comp
L D D42
U 1 1 57FD2A1D
P 4650 4150
F 0 "D42" H 4650 4250 50  0000 C CNN
F 1 "D" H 4650 4050 50  0000 C CNN
F 2 "" H 4650 4150 50  0000 C CNN
F 3 "" H 4650 4150 50  0000 C CNN
	1    4650 4150
	0    1    1    0   
$EndComp
$Comp
L SPST SW43
U 1 1 57FD2A24
P 6350 4500
F 0 "SW43" H 6350 4600 50  0000 C CNN
F 1 "SPST" H 6350 4400 50  0000 C CNN
F 2 "" H 6350 4500 50  0000 C CNN
F 3 "" H 6350 4500 50  0000 C CNN
	1    6350 4500
	1    0    0    -1  
$EndComp
$Comp
L D D43
U 1 1 57FD2A2A
P 5850 4150
F 0 "D43" H 5850 4250 50  0000 C CNN
F 1 "D" H 5850 4050 50  0000 C CNN
F 2 "" H 5850 4150 50  0000 C CNN
F 3 "" H 5850 4150 50  0000 C CNN
	1    5850 4150
	0    1    1    0   
$EndComp
$Comp
L SPST SW44
U 1 1 57FD2A31
P 7550 4500
F 0 "SW44" H 7550 4600 50  0000 C CNN
F 1 "SPST" H 7550 4400 50  0000 C CNN
F 2 "" H 7550 4500 50  0000 C CNN
F 3 "" H 7550 4500 50  0000 C CNN
	1    7550 4500
	1    0    0    -1  
$EndComp
$Comp
L D D44
U 1 1 57FD2A37
P 7050 4150
F 0 "D44" H 7050 4250 50  0000 C CNN
F 1 "D" H 7050 4050 50  0000 C CNN
F 2 "" H 7050 4150 50  0000 C CNN
F 3 "" H 7050 4150 50  0000 C CNN
	1    7050 4150
	0    1    1    0   
$EndComp
Text GLabel 3250 6000 3    60   Output ~ 0
COL0
Text GLabel 4450 6000 3    60   Output ~ 0
COL1
Text GLabel 5650 6000 3    60   Output ~ 0
COL2
Text GLabel 6850 6000 3    60   Output ~ 0
COL3
Text GLabel 8050 6000 3    60   Output ~ 0
COL4
Text GLabel 8700 800  2    60   Input ~ 0
ROW0
Text GLabel 8700 1600 2    60   Input ~ 0
ROW1
Text GLabel 8700 2400 2    60   Input ~ 0
ROW2
Text GLabel 8700 3200 2    60   Input ~ 0
ROW3
Text GLabel 8700 4000 2    60   Input ~ 0
ROW4
$Comp
L VCC #PWR?
U 1 1 57FE7493
P 9650 5800
F 0 "#PWR?" H 9650 5650 50  0001 C CNN
F 1 "VCC" H 9650 5950 50  0000 C CNN
F 2 "" H 9650 5800 50  0000 C CNN
F 3 "" H 9650 5800 50  0000 C CNN
	1    9650 5800
	0    1    1    0   
$EndComp
$Comp
L R R0
U 1 1 57FE7C77
P 8800 5000
F 0 "R0" V 8880 5000 50  0000 C CNN
F 1 "R" V 8800 5000 50  0000 C CNN
F 2 "" V 8730 5000 50  0000 C CNN
F 3 "" H 8800 5000 50  0000 C CNN
	1    8800 5000
	0    -1   -1   0   
$EndComp
$Comp
L R R1
U 1 1 57FE7E64
P 8800 5200
F 0 "R1" V 8880 5200 50  0000 C CNN
F 1 "R" V 8800 5200 50  0000 C CNN
F 2 "" V 8730 5200 50  0000 C CNN
F 3 "" H 8800 5200 50  0000 C CNN
	1    8800 5200
	0    -1   -1   0   
$EndComp
$Comp
L R R2
U 1 1 57FE7F84
P 8800 5400
F 0 "R2" V 8880 5400 50  0000 C CNN
F 1 "R" V 8800 5400 50  0000 C CNN
F 2 "" V 8730 5400 50  0000 C CNN
F 3 "" H 8800 5400 50  0000 C CNN
	1    8800 5400
	0    -1   -1   0   
$EndComp
$Comp
L R R3
U 1 1 57FE8074
P 8800 5600
F 0 "R3" V 8880 5600 50  0000 C CNN
F 1 "R" V 8800 5600 50  0000 C CNN
F 2 "" V 8730 5600 50  0000 C CNN
F 3 "" H 8800 5600 50  0000 C CNN
	1    8800 5600
	0    -1   -1   0   
$EndComp
$Comp
L R R4
U 1 1 57FE816C
P 8800 5800
F 0 "R4" V 8880 5800 50  0000 C CNN
F 1 "R" V 8800 5800 50  0000 C CNN
F 2 "" V 8730 5800 50  0000 C CNN
F 3 "" H 8800 5800 50  0000 C CNN
	1    8800 5800
	0    -1   -1   0   
$EndComp
Text Notes 8250 6000 0    60   ~ 0
Internal Pull-Up Resistors
Wire Wire Line
	2250 1300 2250 1100
Wire Wire Line
	3450 1300 3450 1100
Wire Wire Line
	4650 1300 4650 1100
Wire Wire Line
	5850 1300 5850 1100
Wire Wire Line
	7050 1300 7050 1100
Wire Wire Line
	2250 2100 2250 1900
Wire Wire Line
	3450 2100 3450 1900
Wire Wire Line
	4650 2100 4650 1900
Wire Wire Line
	5850 2100 5850 1900
Wire Wire Line
	7050 2100 7050 1900
Wire Wire Line
	2250 2900 2250 2700
Wire Wire Line
	3450 2900 3450 2700
Wire Wire Line
	4650 2900 4650 2700
Wire Wire Line
	5850 2900 5850 2700
Wire Wire Line
	7050 2900 7050 2700
Wire Wire Line
	2250 3700 2250 3500
Wire Wire Line
	3450 3700 3450 3500
Wire Wire Line
	4650 3700 4650 3500
Wire Wire Line
	5850 3700 5850 3500
Wire Wire Line
	7050 3700 7050 3500
Wire Wire Line
	2250 4500 2250 4300
Wire Wire Line
	3450 4500 3450 4300
Wire Wire Line
	4650 4500 4650 4300
Wire Wire Line
	5850 4500 5850 4300
Wire Wire Line
	7050 4500 7050 4300
Wire Wire Line
	2250 800  3450 800 
Wire Wire Line
	3450 800  4650 800 
Wire Wire Line
	4650 800  5850 800 
Wire Wire Line
	5850 800  7050 800 
Wire Wire Line
	7050 800  8700 800 
Connection ~ 3450 800 
Connection ~ 4650 800 
Connection ~ 5850 800 
Connection ~ 7050 800 
Connection ~ 3250 2100
Connection ~ 3250 2900
Connection ~ 3250 3700
Wire Wire Line
	4450 1300 4450 1300
Wire Wire Line
	4450 1300 4450 2000
Wire Wire Line
	4450 2150 4450 2900
Wire Wire Line
	4450 2900 4450 3700
Wire Wire Line
	4450 3700 4450 4500
Wire Wire Line
	4450 4500 4450 5200
Wire Wire Line
	4450 5200 4450 6000
Connection ~ 4450 2900
Connection ~ 4450 3700
Wire Wire Line
	5650 1300 5650 2100
Wire Wire Line
	5650 2100 5650 2900
Wire Wire Line
	5650 2900 5650 3700
Wire Wire Line
	5650 3700 5650 4500
Wire Wire Line
	5650 4500 5650 5400
Wire Wire Line
	5650 5400 5650 6000
Connection ~ 5650 2100
Connection ~ 5650 2900
Connection ~ 5650 3700
Wire Wire Line
	6850 1300 6850 2100
Wire Wire Line
	6850 2100 6850 2900
Wire Wire Line
	6850 2900 6850 3700
Wire Wire Line
	6850 3700 6850 4500
Wire Wire Line
	6850 4500 6850 5600
Wire Wire Line
	6850 5600 6850 6000
Connection ~ 6850 2100
Connection ~ 6850 2900
Connection ~ 6850 3700
Wire Wire Line
	8050 1300 8050 2100
Wire Wire Line
	8050 2100 8050 2900
Wire Wire Line
	8050 2900 8050 3700
Wire Wire Line
	8050 3700 8050 4500
Wire Wire Line
	8050 4500 8050 5800
Wire Wire Line
	8050 5800 8050 6000
Connection ~ 8050 2100
Connection ~ 8050 2900
Connection ~ 8050 3700
Wire Wire Line
	2250 1600 3450 1600
Wire Wire Line
	3450 1600 4650 1600
Wire Wire Line
	4650 1600 5850 1600
Wire Wire Line
	5850 1600 7050 1600
Wire Wire Line
	7050 1600 8700 1600
Connection ~ 3450 1600
Connection ~ 4650 1600
Connection ~ 5850 1600
Wire Wire Line
	2250 2400 3450 2400
Wire Wire Line
	3450 2400 4650 2400
Wire Wire Line
	4650 2400 5850 2400
Wire Wire Line
	5850 2400 7050 2400
Wire Wire Line
	7050 2400 8700 2400
Connection ~ 3450 2400
Connection ~ 4650 2400
Connection ~ 5850 2400
Wire Wire Line
	2250 3200 3450 3200
Wire Wire Line
	3450 3200 4650 3200
Wire Wire Line
	4650 3200 5850 3200
Wire Wire Line
	5850 3200 7050 3200
Wire Wire Line
	7050 3200 8700 3200
Connection ~ 3450 3200
Connection ~ 4650 3200
Connection ~ 5850 3200
Wire Wire Line
	2250 4000 3450 4000
Wire Wire Line
	3450 4000 4650 4000
Wire Wire Line
	4650 4000 5850 4000
Wire Wire Line
	5850 4000 7050 4000
Wire Wire Line
	7050 4000 8700 4000
Connection ~ 3450 4000
Connection ~ 4650 4000
Connection ~ 5850 4000
Connection ~ 7050 1600
Connection ~ 7050 2400
Connection ~ 7050 3200
Connection ~ 7050 4000
Connection ~ 3250 1300
Connection ~ 4450 1300
Connection ~ 5650 1300
Connection ~ 6850 1300
Connection ~ 8050 1300
Wire Wire Line
	3250 1300 3250 2100
Wire Wire Line
	3250 2100 3250 2900
Wire Wire Line
	3250 2900 3250 3700
Wire Wire Line
	3250 3700 3250 4500
Wire Wire Line
	3250 4500 3250 5000
Wire Wire Line
	3250 5000 3250 6000
Connection ~ 3250 4500
Connection ~ 4450 4500
Connection ~ 5650 4500
Connection ~ 6850 4500
Connection ~ 8050 4500
Wire Wire Line
	3250 5000 8650 5000
Connection ~ 3250 5000
Wire Wire Line
	4450 5200 8650 5200
Connection ~ 4450 5200
Wire Wire Line
	5650 5400 8650 5400
Connection ~ 5650 5400
Wire Wire Line
	6850 5600 8650 5600
Connection ~ 6850 5600
Wire Wire Line
	8050 5800 8650 5800
Connection ~ 8050 5800
Wire Wire Line
	8950 5800 9450 5800
Wire Wire Line
	9450 5800 9650 5800
Wire Wire Line
	9450 5000 9450 5200
Wire Wire Line
	9450 5200 9450 5400
Wire Wire Line
	9450 5400 9450 5600
Wire Wire Line
	9450 5600 9450 5800
Wire Wire Line
	9450 5000 8950 5000
Wire Wire Line
	8950 5200 9450 5200
Connection ~ 9450 5200
Wire Wire Line
	8950 5400 9450 5400
Connection ~ 9450 5400
Wire Wire Line
	8950 5600 9450 5600
Connection ~ 9450 5600
Connection ~ 9450 5800
$EndSCHEMATC
